…
    ## # A tibble: 1 x 4
    ##   n_obs n_years med_gdpc max_gdppc
    ##   <int>   <int>    <dbl>     <dbl>
    ## 1   142      12    3532.   113523.

``` r
gapminder %>% select(country) %>% distinct()
```

    ## # A tibble: 142 x 1
    ##    country    
    ##    <fct>      
    ##  1 Afghanistan
    ##  2 Albania    
    ##  3 Algeria    
    ##  4 Angola     
    ##  5 Argentina  
    ##  6 Australia  
    ##  7 Austria    
    ##  8 Bahrain    
    ##  9 Bangladesh 
    ## 10 Belgium    
    ## # ... with 132 more rows
…
